{
  "firstName": "Teisi-Liis",
  "lastName": "Vaik",
  "passwordHash": "7C5CAA553BCA83B8F286B81AFAAEF8E1114448FDEB1F4B43543A4A1A9D53B4DB",
  "formOfStudy": "S",
  "iHaveReadTheRulesOfTheCourse": true
}
